#Constantes
param numBarredoras; #Numero de barredoras
param H >= 0; #Maximo de pasos de las barredoras
param numPuntos; #Numero de nodos
param aguai; #Calle del agua (aguai, aguaj)
param aguaj;
param duracionJornada>= 0;
param duracionDeposito>= 0;
param velocidadSinBarrer >= 0; # km/h
param velocidadBarriendo >= 0; # km/h

set Nodos := 1..numPuntos;
set Barredoras := 1..numBarredoras;
set Pasos = 1..H;
set calles within {Nodos cross Nodos};

#Nodos iniciales
param Cuartelillos {Barredoras};
#Nodos finales
param NodoFinal {Barredoras};

#Matriz de distancias
param d {calles} >= 0;	#distancia de nodo a nodo

#Limites para pasar por el agua
param limInf:=duracionJornada-duracionDeposito;
param limSup:=duracionDeposito;

# Xijkh = 1 si Barredora k va del nodo i al j en el paso h, BARRIENDO
var x {calles, Barredoras, Pasos}, binary;

# Yijkh = 1 si Barredora k va del nodo i al j en el paso h, SIN BARRER
var y {calles, Barredoras, Pasos}, binary;

# akh es el tiempo acumulado que lleva la barredora k en el paso h
var a {Barredoras, Pasos} >= 0;
var b {Barredoras, Pasos} >= 0;

# Maximo de los tiempos que tardar las barredoras en cerrar su recorrido
var maximo >= 0;
# Minimo de los tiempos que tardar las barredoras en cerrar su recorrido
var minimo >= 0;
#Suma de los tiempos de las barredoras
var suma >= 0;

# Funcion objetivo: minimizar el tiempo que tardan las barredoras en limpiar la zona asignada
#minimize TiempoZona: maximo + sum{k in Barredoras} (a[k,H] + b[k,H]);
#minimize Uniformidad: numBarredoras*maximo - sum {k in Barredoras} (a[k,H]+b[k,H]) + 1.1;
minimize minymax: maximo;



/* Restricciones */

# Maximo mayor o igual que la distancia/tiempo de cada barredora
subject to NombreDeM {k in Barredoras}:
	maximo >= (a[k,H]+b[k,H]);
# Minimo menor o igual que la distancia/tiempo de cada barredora
subject to NombreDeM2 {k in Barredoras}:
	minimo <= (a[k,H]+b[k,H]);

subject to NombreDeM3:
	suma = sum{k in Barredoras} (a[k,H]+b[k,H]);

subject to uniforme {k in Barredoras}:
	a[k,H]+b[k,H] >= 0.8*suma/numBarredoras;

# Calcular el tiempo que lleva la barredora k en el paso h
subject to TiempoAcumuladoSinBarrer {k in Barredoras, h in Pasos}:
	a[k,h] = sum {n in 1..h, (i,j) in calles} (d[i,j]*(y[i,j,k,n]/velocidadSinBarrer));

subject to TiempoAcumuladoBarriendo {k in Barredoras, h in Pasos}:
	b[k,h] = sum {n in 1..h, (i,j) in calles} (d[i,j]*(x[i,j,k,n]/velocidadBarriendo));

# En cada paso barremos como mucho una calle
subject to UnPasoUnaCalle {k in Barredoras, h in Pasos}:
	sum {(i,j) in calles} (x[i,j,k,h] + y[i,j,k,h]) <= 1; 

# Cada calle se barre una vez, distingue calles bidireccionales
subject to CadaCalleSeBarreUnaVez1 {(i,j) in calles : (j,i) in calles}:
	sum {k in Barredoras, h in Pasos} (x[i,j,k,h] + x[j,i,k,h]) = 1; 

# Cada calle se barre una vez (calle unidireccional)
subject to CadaCalleSeBarreUnaVez2 {(i,j) in calles : (j,i) not in calles}:
	sum {k in Barredoras, h in Pasos} x[i,j,k,h] = 1; 

# La calle del cuartelillo NO va a barrerse (es muy larga)
subject to AristaCuartelilloSucia {k in Barredoras, h in Pasos, (i,j) in calles : i = Cuartelillos[k] or j = Cuartelillos[k]} :
	x[i,j,k,h] = 0;
	
# No puede superarse la duracion de la jornada
subject to LimiteJornada {k in Barredoras}:
	a[k,H]+b[k,H] <= duracionJornada;

###Flujo

#Si una barredora pasa por un nodo, sale del mismo en el siguiente paso
#En el nodo final no es necesario (asi puede terminar su recorrido sin seguir dando vueltas).
#Garantizamos que la trayectoria es conexa
subject to ConservacionFlujo {k in Barredoras, h in Pasos, j in Nodos : h > 1 and j <> NodoFinal[k]}:
	sum {i in Nodos, (ii,j) in calles : i = ii} (x[i,j,k,h-1] + y[i,j,k,h-1]) = sum {i in Nodos, (j,ii) in calles : i = ii} (x[j,i,k,h] + y[j,i,k,h]);

#Partimos del nodo origen
subject to PuntoInicial {k in Barredoras}:
	sum {j in Nodos, (Cuartelillos[k],jj) in calles : j = jj} (x[Cuartelillos[k],j,k,1] + y[Cuartelillos[k],j,k,1]) = 1;

/*
#Llegamos al nodo final
#De esta forma hacemos que de vueltas para al final llegar
#Ahora no hay forma (eficiente) para forzarle
subject to PuntoFinal {k in Barredoras}:
	sum {(i,j) in calles : j = NodoFinal[k]} (x[i,j,k,H] + y[i,j,k,H]) = 1;
*/

#Esto se cumplira solamente si
#1. Llega al j = Final, es decir, acaba en el nodo final
#2. Ya estaba en el nodo final (asi que se puede quedar parado
subject to PuntoFinal {k in Barredoras, (i,j) in calles: j <> NodoFinal[k]}:
	x[i,j,k,H] = 0;
subject to PuntoFinal2 {k in Barredoras, (i,j) in calles: j <> NodoFinal[k]}:
	y[i,j,k,H] = 0;


#Variables fijables
#Acabamos en el nodo final
subject to PuntoFin {k in Barredoras, (i,j) in calles : j <> NodoFinal[k]}:
	x[i,j,k,H] = 0;
subject to PuntoFin2 {k in Barredoras, (i,j) in calles : j <> NodoFinal[k]}:
	y[i,j,k,H] = 0;

# Restricciones del agua
# limInf
subject to LimInf {k in Barredoras, h in Pasos: h>1}:
	(x[aguai, aguaj, k, h]+y[aguai, aguaj, k, h])*limInf <= b[k, h-1] + d[aguai, aguaj]*(x[aguai, aguaj, k, h]/velocidadBarriendo);

# limSup
subject to LimSup {k in Barredoras, h in Pasos: h>1}:
	b[k, h-1] + d[aguai, aguaj]*(x[aguai, aguaj, k, h]/velocidadBarriendo) <= limSup*(2 - (x[aguai, aguaj, k, h]+y[aguai, aguaj, k, h]));

# Todas las barredoras deben pasar por la calle del agua
subject to PasoCalleAgua {k in Barredoras}:
	sum {h in Pasos} (x[aguai, aguaj, k, h] + y[aguai, aguaj, k, h]) >= 1;

#Como todas las barredoras pasaran por el agua, diremos que barra la numero 1
#Ojo, esto no implica optimalidad, el peso de la calle deberia ser peque para ello
subject to PasoCalleAguaEntra {k in Barredoras, h in Pasos : k > 1}:
	x[aguai,aguaj,k,h] = 0;
#Al salir de la calle del agua, 
subject to PasoCalleAguaSale {k in Barredoras, h in Pasos}:
	x[aguaj,aguai,k,h] = 0;
